Væl Space - A lesson in over-preparing
…
I noticed in the json file that there were multiple entries for a single page of course notes, one for each subsection, but there were also some entries with the subsection value set to blank. I just wanted to double check that the blank section entries weren’t the entire page of lecture notes, with additional entries duplicating the text by subsection.

tokens_table |>
  mutate(has_section = section != "") |>
  group_by(title, has_section) |>
  count()

# A tibble: 45 × 3
# Groups:   title, has_section [45]
   title                              has_section     n
   <chr>                              <lgl>       <int>
 1 Addendum                           FALSE          43
 2 Addendum                           TRUE          100
 3 Additional Neural Network Concepts FALSE         473
 4 Additional Neural Network Concepts TRUE         1109
 5 Comprehensions and Useful Things   FALSE        1116
 6 Data Processing                    FALSE         654
 7 Data Processing                    TRUE         1804
 8 Data Sparsity                      FALSE         720
 9 Data Sparsity                      TRUE         1724
10 Evaluating models                  FALSE          42
# … with 35 more rows
…
